﻿{
  "name": "DCRMaster",
  "base": "PersistedModel",
  "idInjection": true,
  "options": {
    "validateUpsert": true
  },
  "mixins": {
    "TimeStamp": true
  },
  "properties": {
    "id": {
      "type": "string"
    },
    "companyId": {
      "type": "string",
      "required": true
    },
    "dcrDate": {
      "type": "date"
    },
    "stateId": {
      "type": "string"
    },
    "districtId": {
      "type": "string"
    },
    "visitedBlock": {
      "type": [
        "object"
      ]
    },
    "workingStatus": {
      "type": "string"
    },
    "jointWork": {
      "type": [
        "object"
      ]
    },
    "remarks": {
      "type": "string"
    },
    "timeIn": {
      "type": "date"
    },
    "timeOut": {
      "type": "date"
    },
    "createdAt": {
      "type": "date"
    },
    "updatedAt": {
      "type": "date"
    },
    "submitBy": {
      "type": "string"
    },
    "reportedFrom": {
      "type": "string"
    },
    "geoLocation": {
      "type": [
        "object"
      ]
    },
    "localId": {
      "type": "string"
    },
    "dcrExpense ": {
      "type": [
        "object"
      ]
    },
    "dcrMeetings": {
      "type": [
        "object"
      ]
    },
    "dcrStatus": {
      "type": "number"
    },
    "isOutsideTp": {
      "type": "boolean"
    },
    "detailingDone": {
      "type": "boolean"
    },
    "dcrSubmissionDate": {
      "type": "date"
    },
    "deviateReason": {
      "type": "string"
    },
    "punchAt": {
      "type": "date"
    },
    "callModifiedAt": {
      "type": "date"
    },
    "punchDate": {
      "type": "date"
    },
    "callModifiedDate": {
      "type": "date"
    }
  },
  "validations": [],
  "relations": {
    "state": {
      "type": "belongsTo",
      "model": "State",
      "foreignKey": "stateId"
    },
    "district": {
      "type": "belongsTo",
      "model": "District",
      "foreignKey": "districtId"
    },
    "company": {
      "type": "belongsTo",
      "model": "CompanyMaster",
      "foreignKey": "companyId"
    },
       "patch": {
      "type": "belongsTo",
      "model": "PatchMaster",
      "foreignKey": "patchId"
    },
    "info": {
      "type": "hasMany",
      "model": "DCRProviderVisitDetails",
      "foreignKey": "dcrId"
    },
    "userInfo": {
      "type": "belongsTo",
      "model": "UserLogin",
      "foreignKey": "submitBy"
    }
  },
  "acls": [
    {
      "accessType": "EXECUTE",
      "principalType": "ROLE",
      "principalId": "$everyone",
      "permission": "ALLOW",
      "property": "doLoginByMPIN"
    },
    {
      "accessType": "*",
      "principalType": "ROLE",
      "principalId": "$authenticated",
      "permission": "ALLOW"
    },
    {
      "accessType": "EXECUTE",
      "principalType": "ROLE",
      "principalId": "$everyone",
      "permission": "ALLOW",
      "property": "find"
    }
  ],
  "methods": {}
}
