{
  "name": "Forms",
  "base": "PersistedModel",
  "idInjection": true,
  "options": {
    "validateUpsert": true
  },
  "mixins": {
    "TimeStamp": true
  },
  "properties": {
    "id": {
      "type": "string"
    },
    "formName": {
      "type": "string",
      "required": true
    },
    "formType": {
      "type": "string",
      "required": true
    },
    "displayOrder": {
      "type": "number",
      "required": true
    },
    "status": {
      "type": "boolean",
      "required": true
    },
    "company": {
      "type": "any",
      "required": true
    },
    "createdAt": {
      "type": "date",
      "required": true
    },
    "updatedAt": {
      "type": "date",
      "required": true
    }
  },
  "validations": [],
  "relations": {},
  "acls": [],
  "methods": {}
}
