{
  "name": "Holiday",
  "base": "PersistedModel",
  "idInjection": true,
  "options": {
    "validateUpsert": true
  },
  "properties": {
    "companyId": {
      "type": "string"
    },
    "stateId": {
      "type": "string"
    },
    "holidayDate": {
      "type": "date"
    },
    "holidayName": {
      "type": "string"
    },
    "status": {
      "type": "boolean"
    }
  },
  "validations": [],
  "relations": {},
  "acls": [],
  "methods": {}
}
