{
  "name": "LabelsMaster",
  "base": "PersistedModel",
  "idInjection": true,
  "options": {
    "validateUpsert": true
  },
  "mixins": {
    "TimeStamp": true
  },
  "properties": {
    "id": {
      "type": "string"
    },
    "companyId": {
      "type": "string"
    },
    "displayOrder": {
      "type": "number",
      "required": true
    },
    "label": {
      "type": "string",
      "required": true
    },
    "labelStatus": {
      "type": "boolean",
      "required": true,
      "default": true
    },
    "formId": {
      "type": "string",
      "required": true
    },
    "mandatoryStatus": {
      "type": "boolean",
      "required": true,
      "default": true
    },
    "validations": {
      "type": "any",
      "required": false
    },
    "visibility": {
      "type": "boolean",
      "required": false
    }
  },
  "validations": [],
  "relations": {},
  "acls": [],
  "methods": {}
}
