{
  "name": "PMTFeedback",
  "base": "PersistedModel",
  "idInjection": true,
  "options": {
    "validateUpsert": true
  },
  "properties": {
    "dcrId": {
      "type": "string"
    },
    "dcrDate": {
      "type": "date"
    },
    "jointWorkWithId": {
      "type": "string"
    },
    "preCallPlanning": {
      "type": "string"
    },
    "productKnowledge": {
      "type": "string"
    },
    "isUtilizationVisual": {
      "type": "boolean"
    },
    "clinicCommunication": {
      "type": "string"
    },
    "isCarryingDrList": {
      "type": "boolean"
    },
    "openingCall": {
      "type": "string"
    },
    "closingCall": {
      "type": "string"
    },
    "rcpaStatus": {
      "type": "string"
    },
    "covAsOnDate": {
      "type": "string"
    },
    "primaryBillStatus": {
      "type": "string"
    },
    "secBillStatus": {
      "type": "string"
    },
    "performance": {
      "type": "string"
    },
    "remarks": {
      "type": "string"
    }, 
    "submitBy": {
      "type": "string"
    }

  },
  "validations": [],
  "relations": {
    "state": {
      "type": "belongsTo",
      "model": "State",
      "foreignKey": "stateId"
    },
    "district": {
      "type": "belongsTo",
      "model": "District",
      "foreignKey": "districtId"
    },
    "block": {
      "type": "belongsTo",
      "model": "Area",
      "foreignKey": "blockId"
    },
    "company": {
      "type": "belongsTo",
      "model": "CompanyMaster",
      "foreignKey": "companyId"
    },
    "providerinfo": {
      "type": "belongsTo",
      "model": "Providers",
      "foreignKey": "providerId"
    },
    "submitBy": {
      "type": "belongsTo",
      "model": "UserLogin",
      "foreignKey": "submitBy"
    },
    "file": {
      "type": "belongsTo",
      "model": "FileLibrary",
      "foreignKey": "fileId"
    },
    "dcrId": {
      "type": "belongsTo",
      "model": "DCRMaster"
    },
    "jointWorkWithId": {
      "type": "belongsTo",
      "model": "UserLogin"
    }
  },
    "acls": [],
  "methods": {}
}
