{
  "name": "PoolHeadquarterLinking",
  "base": "PersistedModel",
  "idInjection": true,
  "options": {
    "validateUpsert": true
  },
  "mixins": {
    "TimeStamp": true
  },
  "properties": {
    "companyId": {
      "type": "string"
    },
    "stateId": {
      "type": "string"
    },
    "districtId": {
      "type": "string"
    },
    "mappedDistrictId": {
      "type": "string"
    },
    "createdAt": {
      "type": "date"
    },
    "updatedAt": {
      "type": "date"
    },
    "mappedBy": {
      "type": "string"
    },
    "status": {
      "type": "boolean"
    }
  },
  "validations": [],
  "relations": {
    "state": {
      "type": "belongsTo",
      "model": "State",
      "foreignKey": "stateId"
    },
    "district": {
      "type": "belongsTo",
      "model": "District",
      "foreignKey": "districtId"
    },
    "mappedDistrictId": {
      "type": "belongsTo",
      "model": "District",
      "foreignKey": "mappedDistrictId"
    },
    "company": {
      "type": "belongsTo",
      "model": "CompanyMaster",
      "foreignKey": "companyId"
    },
    "mappedBy": {
      "type": "belongsTo",
      "model": "UserLogin",
      "foreignKey": "mappedBy"
    }
  },
  "acls": [],
  "methods": {}
}
