{
  "name": "TourProgram",
  "base": "PersistedModel",
  "idInjection": true,
  "options": {
    "validateUpsert": true
  },
  "mixins": {
    "TimeStamp": true
  },
  "properties": {
    "id": {
      "type": "string"
    },
    "companyId": {
      "type": "string",
      "required": true
    },
    "date": {
      "type": "date",
      "required": true
    },
    "activity": {
      "type": "any",
      "required": true
    },
    "approvedActivity": {
      "type": "any"
    },
    "month": {
      "type": "number",
      "required": true
    },
    "year": {
      "type": "number",
      "required": true
    },
    "designationLevel": {
      "type": "number",
      "required": true
    },
    "designation": {
      "type": "string",
      "required": true
    },
    "stateId": {
      "type": "string",
      "required": true
    },
    "districtId": {
      "type": "string",
      "required": true
    },
    "area": {
      "type": [
        "object"
      ]
    },
    "approvedArea": {
      "type": [
        "object"
      ]
    },
    "doctors": {
      "type": [
        "object"
      ],
      "required": false
    },
    "approvedDoctors": {
      "type": [
        "object"
      ],
      "required": false
    },
    "chemists": {
      "type": [
        "object"
      ]
    },
    "approvedChemists": {
      "type": [
        "object"
      ]
    },
    "sendForApproval": {
      "type": "boolean",
      "default": false
    },
    "createdBy": {
      "type": "string",
      "required": true
    },
    "remarks": {
      "type": "string"
    },
    "approvedRemarks": {
      "type": "string",
      "required": false
    },
    "approvalStatus": {
      "type": "boolean",
      "default": false
    },
    "tpSubmissionDate": {
      "type": "date"
    },
    "tpModificationDate": {
      "type": "date"
    },
    "approvedById": {
      "type": "string"
    },
    "approvedByName": {
      "type": "string"
    },
    "approvedAt": {
      "type": "date"
    },
    "plannedDoctors": {
      "type": [
        "object"
      ]
    },
    "plannedChemists": {
      "type": [
        "object"
      ]
    },
    "planningSubmissionDate": {
      "type": "date",
      "default": "1900-01-01T00:00:00.000Z"
    },
    "planningModificationDate": {
      "type": "date",
      "default": "1900-01-01T00:00:00.000Z"
    },
    "plannedActivity": {
      "type": "string",
      "required": false
    },
    "deviateReason": {
      "type": "string",
      "required": false
    },
    "createdAt": {
      "type": "date"
    },
    "updatedAt": {
      "type": "date"
    },
    "rejectionMessage": {
      "type": "string"
    }
  },
  "validations": [],
  "relations": {
    "state": {
      "type": "belongsTo",
      "model": "State",
      "foreignKey": "stateId"
    },
    "district": {
      "type": "belongsTo",
      "model": "District",
      "foreignKey": "districtId"
    },
    "company": {
      "type": "belongsTo",
      "model": "CompanyMaster",
      "foreignKey": "companyId"
    },
    "createdBy": {
      "type": "belongsTo",
      "model": "UserLogin",
      "foreignKey": "createdBy"
    },
    "approvedBy": {
      "type": "belongsTo",
      "model": "UserLogin",
      "foreignKey": "approvedById"
    },     
    "patch": {
      "type": "belongsTo",
      "model": "PatchMaster"
    },                                               
    "tpPlannedWithUserId": {
      "type": "belongsTo",
      "model": "UserLogin",
      "foreignKey": "tpPlannedWithUserId"
    }
  },
  "acls": [],
  "methods": {}
}
