{
  "name": "UserLogin",
  "base": "User",
  "idInjection": true,
  "options": {
    "validateUpsert": true
  },
  "mixins": {
    "TimeStamp": true
  },
  "properties": {
    "id": {
      "type": "string"
    },
"companyId": {
      "type": "string",
      "required": true
    },
    "countryId": {
      "type": "string"
    },
    "companyName": {
      "type": "string",
      "required": true
    },
    "name": {
      "type": "string",
      "required": true
    },
    "age": {
      "type": "number",
      "default": 0
    },
    "gender": {
      "type": "string",
      "required": true
    },
    "address": {
      "type": "string"
    },
    "dateOfBirth": {
      "type": "date"
    },
    "dateOfAnniversary": {
      "type": "date"
    },
    "dateOfJoining": {
      "type": "date",
      "required": true
    },
    "aadhaar": {
      "type": "string"
    },
    "PAN": {
      "type": "string",
      "default": 0
    },
    "DLNumber": {
      "type": "string",
      "default": 0
    },
    "mobile": {
      "type": "number",
      "required": true
    },
    "email": {
      "type": "string",
      "required": true
    },
    "username": {
      "type": "string",
      "required": true
    },
    "viewPassword": {
      "type": "string",
      "required": true
    },
    "password": {
      "type": "string",
      "required": true
    },
    "status": {
      "type": "boolean",
      "required": true,
      "default": true
    },
    "fcmToken": {
      "type": "string"
    },
    "mPIN": {
      "type": "number"
    },
    "deviceId": {
      "type": "string"
    },
    "isMPINStatus": {
      "type": "boolean",
      "default": false
    },
    "divisionId": {
      "type": "string"
    },
    "divisionName": {
      "type": "string"
    },
    "createdAt": {
      "type": "date"
    },
    "updatedAt": {
      "type": "date"
    },
    "updatedBy": {
      "type": "string"
    },
    "imageId": {
      "type": "string",
      "default": "5ca6a4a5b0980e55a1bb19b3"
    },
    "employeeCode": {
      "type": "string"
    }
  },
  "validations": [],
  "relations": {
    "company": {
      "type": "belongsTo",
      "model": "CompanyMaster"
    },
"country": {
      "type": "belongsTo",
      "model": "Country"
    },
    "userInfo": {
      "type": "hasMany",
      "model": "UserInfo",
      "foreignKey": "userId"
    },
     "DCRMaster": {
      "type": "hasMany",
      "model": "DCRMaster",
      "foreignKey": "submitBy"
    },
    "userAccess": {
      "type": "hasMany",
      "model": "UserAccess",
      "foreignKey": "userId"
    },
    "image": {
      "type": "belongsTo",
      "model": "FileLibrary"
    }
  },
  "acls": [
    {
      "accessType": "EXECUTE",
      "principalType": "ROLE",
      "principalId": "$everyone",
      "permission": "ALLOW",
      "property": "doLoginByMPIN"
    },
    {
      "accessType": "EXECUTE",
      "principalType": "ROLE",
      "principalId": "$everyone",
      "permission": "ALLOW",
      "property": "deleteuser"
    },
    {
      "accessType": "*",
      "principalType": "ROLE",
      "principalId": "$authenticated",
      "permission": "ALLOW"
    },
    {
      "accessType": "EXECUTE",
      "principalType": "ROLE",
      "principalId": "$everyone",
      "permission": "ALLOW",
      "property": "find"
    },
    {
      "accessType": "EXECUTE",
      "principalType": "ROLE",
      "principalId": "$everyone",
      "permission": "ALLOW",
      "property": "editUser"
    },
    {
      "accessType": "EXECUTE",
      "principalType": "ROLE",
      "principalId": "$authenticated",
      "permission": "ALLOW",
      "property": "changePasswordAPI"
    },
    {
      "accessType": "EXECUTE",
      "principalType": "ROLE",
      "principalId": "$everyone",
      "permission": "ALLOW",
      "property": "create_or_update"
    }
  ],
  "methods": {}
}
