﻿{
  "_meta": {
    "sources": [
      "loopback/common/models",
      "loopback/server/models",
      "../common/models",
      "./models"
    ],
    "mixins": [
      "loopback/common/mixins",
      "loopback/server/mixins",
      "../common/mixins",
      "./mixins"
    ]
  },
  "User": {
    "dataSource": "MRRDB",
    "public": false
  },
  "AccessToken": {
    "dataSource": "MRRDB",
    "public": false
  },
  "ACL": {
    "dataSource": "MRRDB",
    "public": false
  },
  "RoleMapping": {
    "dataSource": "MRRDB",
    "public": false,
    "options": {
      "strictObjectIDCoercion": true
    }
  },
  "Role": {
    "dataSource": "MRRDB",
    "public": false
  },
  "State": {
    "dataSource": "MRRDB",
    "public": true
  },
  "LoginInfo": {
    "dataSource": "MRRDB",
    "public": true
  },
  "UserLogin": {
    "dataSource": "MRRDB",
    "public": true
  },
  "CompanyMaster": {
    "dataSource": "MRRDB",
    "public": true
  },
  "TourProgram": {
    "dataSource": "MRRDB",
    "public": true
  },
  "District": {
    "dataSource": "MRRDB",
    "public": true
  },
  "MPNDetail": {
    "dataSource": "MRRDB",
    "public": true
  },
  "DeviceInfo": {
    "dataSource": "MRRDB",
    "public": true
  },
  "Activity": {
    "dataSource": "MRRDB",
    "public": true
  },
  "Providers": {
    "dataSource": "MRRDB",
    "public": true
  },
  "Area": {
    "dataSource": "MRRDB",
    "public": true
  },
  "DCRMaster": {
    "dataSource": "MRRDB",
    "public": true
  },
  "LabelsMaster": {
    "dataSource": "MRRDB",
    "public": true
  },
  "Forms": {
    "dataSource": "MRRDB",
    "public": true
  },
  "Gifts": {
    "dataSource": "MRRDB",
    "public": true
  },
  "Products": {
    "dataSource": "MRRDB",
    "public": true
  },
  "Expenses": {
    "dataSource": "MRRDB",
    "public": true
  },
  "Hierarchy": {
    "dataSource": "MRRDB",
    "public": true
  },
  "DCRProviderVisitDetails": {
    "dataSource": "MRRDB",
    "public": true
  },
  "UserAreaMapping": {
    "dataSource": "MRRDB",
    "public": true
  },
  "UserInfo": {
    "dataSource": "MRRDB",
    "public": true
  },
  "UserAccess": {
    "dataSource": "MRRDB",
    "public": true
  },
  "DivisionMaster": {
    "dataSource": "MRRDB",
    "public": true
  },
  "Designation": {
    "dataSource": "MRRDB",
    "public": true
  },
  "UserStockiestMapping": {
    "dataSource": "MRRDB",
    "public": true
  },
  "PrimaryAndSalereturn": {
    "dataSource": "MRRDB",
    "public": true
  },
  "RXActivity": {
    "dataSource": "MRRDB",
    "public": true
  },
  "FareRateCard": {
    "dataSource": "MRRDB",
    "public": true
  },
  "DailyAllowance": {
    "dataSource": "MRRDB",
    "public": true
  },
  "STP": {
    "dataSource": "MRRDB",
    "public": true
  },
  "ExpenseClaimed": {
    "dataSource": "MRRDB",
    "public": true
  },
  "Target": {
    "dataSource": "MRRDB",
    "public": true
  },
  "FileLibrary": {
    "dataSource": "MRRDB",
    "public": true
  },
  "container": {
    "dataSource": "storage",
    "public": true
  },
  "SampleGiftIssueDetail": {
    "dataSource": "MRRDB",
    "public": true
  },
  "MefTracker": {
    "dataSource": "MRRDB",
    "public": true
  },
  "Holiday": {
    "dataSource": "MRRDB",
    "public": true
  },
  "DataTransferHistory": {
    "dataSource": "MRRDB",
    "public": true
  },
  "longLatInfo": {
    "dataSource": "MRRDB",
    "public": true
  },
  "ProductUploadDetails": {
    "dataSource": "MRRDB",
    "public": true
  },
  "BankDetails": {
    "dataSource": "MRRDB",
    "public": true
  },
  "Feedback": {
    "dataSource": "MRRDB",
    "public": true
  },
  "BroadcastMessage": {
    "dataSource": "MRRDB",
    "public": true
  },
  "Category": {
    "dataSource": "MRRDB",
    "public": true
  },
  "FixExpense": {
    "dataSource": "MRRDB",
    "public": true
  },
  "Inbox": {
    "dataSource": "MRRDB",
    "public": true
  },
  "Draft": {
    "dataSource": "MRRDB",
    "public": true
  },
  "SentItem": {
    "dataSource": "MRRDB",
    "public": true
  },
  "DCRProviderVisitDetailsBackup": {
    "dataSource": "MRRDB",
    "public": true
  },
  "DCRMasterBackup": {
    "dataSource": "MRRDB",
    "public": true
  },
  "TrackLockOpenDetail": {
    "dataSource": "MRRDB",
    "public": true
  },
  "BlockUser": {
    "dataSource": "MRRDB",
    "public": true
  },
  "Country": {
    "dataSource": "MRRDB",
    "public": true
  },
  "PMTFeedback": {
    "dataSource": "MRRDB",
    "public": true
  },
  "Dayplanlockopen": {
    "dataSource": "MRRDB",
    "public": true
  },
  "LeaveApproval": {
    "dataSource": "MRRDB",
    "public": true
  },
  "ProvidersUntagLogs": {
    "dataSource": "MRRDB",
    "public": true
  },
  "DoctorChemist": {
    "dataSource": "MRRDB",
    "public": true
  },
  "CRMSponsorship": {
    "dataSource": "MRRDB",
    "public": true
  },
  "MGRInvestmentVisitDetails": {
    "dataSource": "MRRDB",
    "public": true
  },
  "MgrInvestmentMaster": {
    "dataSource": "MRRDB",
    "public": true
  },
  "FareRangeDetails": {
    "dataSource": "MRRDB",
    "public": true
  },
  "PhoneOrder": {
    "dataSource": "MRRDB",
    "public": true
  },
  "trackGeoInformation": {
    "dataSource": "MRRDB",
    "public": true
  },
  "productGroups": {
    "dataSource": "MRRDB",
    "public": true
  },
  "PatchMaster": {
    "dataSource": "MRRDB",
    "public": true
  },
  "Assignproducttogroup": {
    "dataSource": "MRRDB",
    "public": true
  },
  "Gis": {
    "dataSource": "MRRDB",
    "public": true
  },
  "PoolHeadquarterLinking": {
    "dataSource": "MRRDB",
    "public": true
  },
  "ERP": {
    "dataSource": "MRRDB",
    "public": true
  }
}